{
  "#spec": "service-manifest-src@1",
  "template": "builtin-lxc-docker",
  "docker_name": "registry.gitlab.com/pantacor/pantavisor-web-status",
  "docker_tag": "master",
  "docker_source": "remote,local",
  "docker_platform": "linux/arm/v7"
}
